…
#find out plants with negative growth
plant_growth %>%
  arrange(PID, survey_date) %>%  # arrange in time sequence
  group_by(PID) %>%
  mutate(growth = height_cm - lag(height_cm)) %>%  # find out the diff btw nearby dates
  summarise(has_negative_growth = any(growth < 0, na.rm = TRUE)) %>% 
  filter(has_negative_growth) -> neg_growth_plants
neg_growth_plants
```

```
## # A tibble: 826 x 2
##    PID                  has_negative_growth
##    <chr>                <lgl>              
##  1 BH_1_10_BH_1_BH_1_10 TRUE               
##  2 BH_1_12_BH_1_BH_1_12 TRUE               
##  3 BH_1_13_BH_1_BH_1_13 TRUE               
##  4 BH_1_1_BH_1_BH_1_1   TRUE               
##  5 BH_1_4_BH_1_BH_1_4   TRUE               
##  6 BH_1_7_BH_1_BH_1_7   TRUE               
##  7 BH_2_10_BH_2_BH_2_10 TRUE               
##  8 BH_2_11_BH_2_BH_2_11 TRUE               
##  9 BH_2_12_BH_2_BH_2_12 TRUE               
## 10 BH_2_13_BH_2_BH_2_13 TRUE               
## # i 816 more rows
```
…
sd_light <- sd(plant_with_light$weekly_avg_SlrW, na.rm = TRUE)

pop_slope <- pop_slope %>%
  mutate(
    slope_per_Wm2 = slope_SD / sd_light,
    lower_per_Wm2 = lower_SD / sd_light,
    upper_per_Wm2 = upper_SD / sd_light
  )%>%
  select(parent_pop, slope_per_Wm2, lower_per_Wm2, upper_per_Wm2)
pop_slope
```

```
## # A tibble: 22 x 4
##    parent_pop slope_per_Wm2 lower_per_Wm2 upper_per_Wm2
##    <chr>              <dbl>         <dbl>         <dbl>
##  1 BH             0.000742      0.000409       0.00108 
##  2 CC            -0.000128     -0.000461       0.000205
##  3 CP2            0.000744      0.000376       0.00111 
##  4 CP3            0.000949      0.000542       0.00136 
##  5 DPR            0.0000489    -0.000316       0.000413
##  6 FR             0.000918      0.000402       0.00143 
##  7 IH            -0.000105     -0.000433       0.000223
##  8 LV1            0.000373     -0.0000792      0.000825
##  9 LV3            0.000755      0.000174       0.00134 
## 10 LVTR1          0.000540      0.0000734      0.00101 
## # i 12 more rows
```
…
